{

    "badwords": [

        "adolfh",
        "adolphh",
        "analpounds",
        "antichrist",
        "antisemit",
        "ashole",
        "ass",
        "asshol",
        "auschwitz",
        "badmotherf",
        "bastard",
        "basterd",
        "bastrd",
        "beatoff",
        "biatch",
        "biotch",
        "bitch",
        "bittch",
        "blowjob",
        "blowme",
        "bltch",
        "boner",
        "boob",
        "bunghol",
        "butthol",
        "ceemen",
        "chienne",
        "chinga",
        "cliit",
        "clit",
        "clux",
        "cocsuc",
        "cocsuk",
        "cocksuc",
        "cocksuk",
        "coksuc",
        "coksuk",
        "copulat",
        "coxuc",
        "coxuk",
        "crack",
        "cumcatcher",
        "cuniling",
        "cunniling",
        "cunt",
        "dick",
        "dickhead",
        "dildo",
        "douche",
        "eatshit",
        "ejacul",
        "erection",
        "faeces",
        "fag",
        "fahq",
        "faucker",
        "fck",
        "feces",
        "felat",
        "felch",
        "fellat",
        "fked",
        "fkg",
        "fking",
        "fku",
        "fkyou",
        "focku",
        "fook",
        "foreplay",
        "foreskin",
        "fornicat",
        "forskin",
        "fuck",
        "fucq",
        "fuct",
        "fucyou",
        "fuhk",
        "fuk",
        "fuq",
        "fuuck",
        "fuuk",
        "fuuq",
        "fux",
        "fvck",
        "gangbang",
        "genital",
        "gethead",
        "getlaid",
        "gimmehead",
        "giveabj",
        "givebj",
        "givehead",
        "givemehead",
        "gonad",
        "gonorea",
        "gonorr",
        "goodhead",
        "gook",
        "hardon",
        "harrycox",
        "herpees",
        "herpes",
        "hitler",
        "hittler",
        "holocaust",
        "homo",
        "honkey",
        "hornee",
        "horney",
        "horni",
        "horny",
        "horseshit",
        "hotchat",
        "humping",
        "hyman",
        "hymen",
        "hymie",
        "injun",
        "jackass",
        "jackme",
        "jackoff",
        "jerkme",
        "jerkoff",
        "jigga",
        "jism",
        "jisum",
        "jiz",
        "junglebunny",
        "kcoc",
        "kcuf",
        "kike",
        "kkk",
        "klan",
        "kluecluck",
        "klux",
        "kock",
        "kraut",
        "krotch",
        "krout",
        "kunt",
        "labia",
        "lesbian",
        "lesblan",
        "lesbo",
        "lezbian",
        "lezblan",
        "lezbo",
        "lezzbo",
        "lezzie",
        "lickme",
        "lilho",
        "limey",
        "lovemaker",
        "mastabat",
        "masterbat",
        "mastrb",
        "masturbat",
        "mazterbait",
        "menstru",
        "morehead",
        "muff",
        "mutha",
        "nakid",
        "nakld",
        "natzi",
        "nazi",
        "neega",
        "neegg",
        "nekid",
        "nekkid",
        "nigg",
        "nigr",
        "nipple",
        "nlgga",
        "nutz",
        "orgasm",
        "orgee",
        "papsmear",
        "pecker",
        "penetrat",
        "penis",
        "pennis",
        "penus",
        "pervert",
        "phallus",
        "phuc",
        "phuk",
        "phuq",
        "pieceofass",
        "pinis",
        "pinnis",
        "plmp",
        "plss",
        "poopoo",
        "pothead",
        "pothed",
        "preteen",
        "prick",
        "prostitut",
        "pubic",
        "pubis",
        "pusee",
        "pussee",
        "pussies",
        "pussy",
        "puzzy",
        "quarterbag",
        "raghead",
        "rectum",
        "reich",
        "schit",
        "schlong",
        "schmuck",
        "schmuk",
        "screwme",
        "screwu",
        "screwyou",
        "scrodum",
        "scrot",
        "semen",
        "shit",
        "shlong",
        "shlt",
        "shmuck",
        "shmuk",
        "shyt",
        "sifilis",
        "sixtynine",
        "skank",
        "slut",
        "smegma",
        "snatch",
        "sodom",
        "spearchucker",
        "sperm",
        "spic",
        "stickur",
        "stickyour",
        "suxcock",
        "suxdick",
        "swastika",
        "syphilis",
        "taistick",
        "tampon",
        "testes",
        "testicle",
        "thaistick",
        "tits",
        "titty",
        "towelhead",
        "turdbine",
        "twat",
        "upthebutt",
        "uradic",
        "uradik",
        "vagina",
        "vagyna",
        "vajina",
        "vgina",
        "vibrat",
        "vulva",
        "wanker",
        "wetba",
        "wetdre",
        "whitepower",
        "whitetrash"
    ]
}